{
  "content": [
    {
      "id": 12818,
      "satelliteId": "30341",
      "name": "FENGYUN 1C DEB",
      "date": "2023-06-27T21:54:56.000+00:00",
      "satelliteNumber": "30341",
      "classification": "U",
      "launch": "99025",
      "launchPiece": "A",
      "epoch": "23178.53815829",
      "firstTimeDerivative": " .00004988",
      "secondTimeDerivative": " 00000+0",
      "bstarDragTerm": " 24580-2",
      "ephemerisType": "0",
      "elementNumber": " 999",
      "checksum": "7",
      "inclination": " 99.2604",
      "rightAscension": "  8.7261",
      "eccentricity": "0062606",
      "argumentOfPerigee": "113.9303",
      "meanAnomaly": "266.2442",
      "meanMotion": "14.16962483",
      "fetchTimestamp": "2023-08-01T08:16:30.000+00:00"
    },
    {
      "id": 12801,
      "satelliteId": "34344",
      "name": "COSMOS 2251 DEB",
      "date": "2023-06-26T21:14:35.000+00:00",
      "satelliteNumber": "34344",
      "classification": "U",
      "launch": "93036",
      "launchPiece": "P",
      "epoch": "23177.51013118",
      "firstTimeDerivative": " .00002334",
      "secondTimeDerivative": " 00000+0",
      "bstarDragTerm": " 12466-2",
      "ephemerisType": "0",
      "elementNumber": " 999",
      "checksum": "1",
      "inclination": " 73.9831",
      "rightAscension": "263.8849",
      "eccentricity": "0170898",
      "argumentOfPerigee": "285.3404",
      "meanAnomaly": " 85.2759",
      "meanMotion": "14.06636162",
      "fetchTimestamp": "2023-08-01T08:16:30.000+00:00"
    },
    {
      "id": 12581,
      "satelliteId": "30831",
      "name": "FENGYUN 1C DEB",
      "date": "2023-06-24T20:49:11.000+00:00",
      "satelliteNumber": "30831",
      "classification": "U",
      "launch": "99025",
      "launchPiece": "A",
      "epoch": "23175.49249201",
      "firstTimeDerivative": " .00001044",
      "secondTimeDerivative": " 00000+0",
      "bstarDragTerm": " 43405-3",
      "ephemerisType": "0",
      "elementNumber": " 999",
      "checksum": "6",
      "inclination": " 99.2711",
      "rightAscension": "258.6087",
      "eccentricity": "0058935",
      "argumentOfPerigee": "106.9789",
      "meanAnomaly": "253.7860",
      "meanMotion": "14.27795046",
      "fetchTimestamp": "2023-08-01T08:16:30.000+00:00"
    },
    {
      "id": 12303,
      "satelliteId": "37579",
      "name": "FENGYUN 1C DEB",
      "date": "2023-06-17T22:11:12.000+00:00",
      "satelliteNumber": "37579",
      "classification": "U",
      "launch": "99025",
      "launchPiece": "E",
      "epoch": "23168.54945183",
      "firstTimeDerivative": " .00002913",
      "secondTimeDerivative": " 00000+0",
      "bstarDragTerm": " 14556-2",
      "ephemerisType": "0",
      "elementNumber": " 999",
      "checksum": "2",
      "inclination": " 99.2466",
      "rightAscension": " 79.7281",
      "eccentricity": "0041564",
      "argumentOfPerigee": " 56.1828",
      "meanAnomaly": "304.3292",
      "meanMotion": "14.17173216",
      "fetchTimestamp": "2023-08-01T08:16:30.000+00:00"
    },
    {
      "id": 12584,
      "satelliteId": "30925",
      "name": "FENGYUN 1C DEB",
      "date": "2023-06-28T14:16:33.000+00:00",
      "satelliteNumber": "30925",
      "classification": "U",
      "launch": "99025",
      "launchPiece": "A",
      "epoch": "23179.21983168",
      "firstTimeDerivative": " .00003451",
      "secondTimeDerivative": " 00000+0",
      "bstarDragTerm": " 15094-2",
      "ephemerisType": "0",
      "elementNumber": " 999",
      "checksum": "7",
      "inclination": " 98.8622",
      "rightAscension": "278.9985",
      "eccentricity": "0040137",
      "argumentOfPerigee": "351.7158",
      "meanAnomaly": " 70.2782",
      "meanMotion": "14.24007710",
      "fetchTimestamp": "2023-08-01T08:16:28.000+00:00"
    },
    {
      "id": 12231,
      "satelliteId": "33804",
      "name": "COSMOS 2251 DEB",
      "date": "2023-06-28T16:26:32.000+00:00",
      "satelliteNumber": "33804",
      "classification": "U",
      "launch": "93036",
      "launchPiece": "A",
      "epoch": "23179.31010193",
      "firstTimeDerivative": " .00051380",
      "secondTimeDerivative": " 00000+0",
      "bstarDragTerm": " 29416-2",
      "ephemerisType": "0",
      "elementNumber": " 999",
      "checksum": "9",
      "inclination": " 74.0110",
      "rightAscension": "259.2518",
      "eccentricity": "0025630",
      "argumentOfPerigee": "245.2578",
      "meanAnomaly": "114.5947",
      "meanMotion": "15.12097950",
      "fetchTimestamp": "2023-08-01T08:16:28.000+00:00"
    },
    {
      "id": 12276,
      "satelliteId": "31631",
      "name": "FENGYUN 1C DEB",
      "date": "2023-06-26T02:23:26.000+00:00",
      "satelliteNumber": "31631",
      "classification": "U",
      "launch": "99025",
      "launchPiece": "C",
      "epoch": "23176.72461574",
      "firstTimeDerivative": " .00013988",
      "secondTimeDerivative": " 00000+0",
      "bstarDragTerm": " 60285-2",
      "ephemerisType": "0",
      "elementNumber": " 999",
      "checksum": "5",
      "inclination": " 99.3761",
      "rightAscension": "353.9570",
      "eccentricity": "0161950",
      "argumentOfPerigee": " 83.7416",
      "meanAnomaly": "278.2176",
      "meanMotion": "14.17839924",
      "fetchTimestamp": "2023-08-01T08:16:28.000+00:00"
    },
    {
      "id": 12485,
      "satelliteId": "32179",
      "name": "FENGYUN 1C DEB",
      "date": "2023-06-27T06:05:19.000+00:00",
      "satelliteNumber": "32179",
      "classification": "U",
      "launch": "99025",
      "launchPiece": "C",
      "epoch": "23177.87870006",
      "firstTimeDerivative": " .00000668",
      "secondTimeDerivative": " 00000+0",
      "bstarDragTerm": " 41928-3",
      "ephemerisType": "0",
      "elementNumber": " 999",
      "checksum": "9",
      "inclination": " 99.0347",
      "rightAscension": "228.0102",
      "eccentricity": "0147579",
      "argumentOfPerigee": "172.3094",
      "meanAnomaly": "  1.4471",
      "meanMotion": "14.02656289",
      "fetchTimestamp": "2023-08-01T08:16:28.000+00:00"
    },
    {
      "id": 12457,
      "satelliteId": "31018",
      "name": "FENGYUN 1C DEB",
      "date": "2023-06-26T12:43:20.000+00:00",
      "satelliteNumber": "31018",
      "classification": "U",
      "launch": "99025",
      "launchPiece": "B",
      "epoch": "23177.15510214",
      "firstTimeDerivative": " .00003088",
      "secondTimeDerivative": " 00000+0",
      "bstarDragTerm": " 18073-2",
      "ephemerisType": "0",
      "elementNumber": " 999",
      "checksum": "6",
      "inclination": " 99.0717",
      "rightAscension": "244.8808",
      "eccentricity": "0068329",
      "argumentOfPerigee": "139.3889",
      "meanAnomaly": "221.2405",
      "meanMotion": "14.07859916",
      "fetchTimestamp": "2023-08-01T08:16:28.000+00:00"
    },
    {
      "id": 12371,
      "satelliteId": "33911",
      "name": "COSMOS 2251 DEB",
      "date": "2023-06-26T12:55:36.000+00:00",
      "satelliteNumber": "33911",
      "classification": "U",
      "launch": "93036",
      "launchPiece": "D",
      "epoch": "23177.16361654",
      "firstTimeDerivative": " .00005635",
      "secondTimeDerivative": " 00000+0",
      "bstarDragTerm": " 14601-2",
      "ephemerisType": "0",
      "elementNumber": " 999",
      "checksum": "2",
      "inclination": " 74.1015",
      "rightAscension": " 76.5361",
      "eccentricity": "0022235",
      "argumentOfPerigee": "265.1552",
      "meanAnomaly": "245.7549",
      "meanMotion": "14.49874816",
      "fetchTimestamp": "2023-08-01T08:16:28.000+00:00"
    },
    {
      "id": 12225,
      "satelliteId": "33691",
      "name": "FENGYUN 1C DEB",
      "date": "2023-06-26T03:58:43.000+00:00",
      "satelliteNumber": "33691",
      "classification": "U",
      "launch": "99025",
      "launchPiece": "D",
      "epoch": "23176.79077946",
      "firstTimeDerivative": " .00005197",
      "secondTimeDerivative": " 00000+0",
      "bstarDragTerm": " 29415-2",
      "ephemerisType": "0",
      "elementNumber": " 999",
      "checksum": "9",
      "inclination": " 99.0894",
      "rightAscension": "128.0501",
      "eccentricity": "0084594",
      "argumentOfPerigee": " 91.1837",
      "meanAnomaly": "269.9025",
      "meanMotion": "14.08724108",
      "fetchTimestamp": "2023-08-01T08:16:28.000+00:00"
    },
    {
      "id": 12226,
      "satelliteId": "34428",
      "name": "COSMOS 2251 DEB",
      "date": "2023-06-28T04:25:20.000+00:00",
      "satelliteNumber": "34428",
      "classification": "U",
      "launch": "93036",
      "launchPiece": "R",
      "epoch": "23178.80926718",
      "firstTimeDerivative": " .00007251",
      "secondTimeDerivative": " 00000+0",
      "bstarDragTerm": " 14586-2",
      "ephemerisType": "0",
      "elementNumber": " 999",
      "checksum": "4",
      "inclination": " 74.0361",
      "rightAscension": "318.3802",
      "eccentricity": "0029659",
      "argumentOfPerigee": "250.8378",
      "meanAnomaly": "238.3551",
      "meanMotion": "14.61468634",
      "fetchTimestamp": "2023-08-01T08:16:28.000+00:00"
    },
    {
      "id": 12235,
      "satelliteId": "31892",
      "name": "FENGYUN 1C DEB",
      "date": "2023-06-27T21:29:12.000+00:00",
      "satelliteNumber": "31892",
      "classification": "U",
      "launch": "99025",
      "launchPiece": "C",
      "epoch": "23178.52028573",
      "firstTimeDerivative": " .00001788",
      "secondTimeDerivative": " 00000+0",
      "bstarDragTerm": " 50907-3",
      "ephemerisType": "0",
      "elementNumber": " 999",
      "checksum": "8",
      "inclination": " 99.2196",
      "rightAscension": "269.6976",
      "eccentricity": "0220590",
      "argumentOfPerigee": " 30.4373",
      "meanAnomaly": "330.9403",
      "meanMotion": "14.33456190",
      "fetchTimestamp": "2023-08-01T08:16:28.000+00:00"
    },
    {
      "id": 12771,
      "satelliteId": "31514",
      "name": "FENGYUN 1C DEB",
      "date": "2023-06-26T22:32:33.000+00:00",
      "satelliteNumber": "31514",
      "classification": "U",
      "launch": "99025",
      "launchPiece": "B",
      "epoch": "23177.56427538",
      "firstTimeDerivative": " .00002868",
      "secondTimeDerivative": " 00000+0",
      "bstarDragTerm": " 15519-2",
      "ephemerisType": "0",
      "elementNumber": " 999",
      "checksum": "5",
      "inclination": " 99.2935",
      "rightAscension": " 30.5282",
      "eccentricity": "0061429",
      "argumentOfPerigee": "130.6146",
      "meanAnomaly": "230.0390",
      "meanMotion": "14.12422484",
      "fetchTimestamp": "2023-08-01T08:16:28.000+00:00"
    },
    {
      "id": 12764,
      "satelliteId": "31430",
      "name": "FENGYUN 1C DEB",
      "date": "2023-06-28T11:53:22.000+00:00",
      "satelliteNumber": "31430",
      "classification": "U",
      "launch": "99025",
      "launchPiece": "B",
      "epoch": "23179.12040506",
      "firstTimeDerivative": " .00002196",
      "secondTimeDerivative": " 00000+0",
      "bstarDragTerm": " 10645-2",
      "ephemerisType": "0",
      "elementNumber": " 999",
      "checksum": "1",
      "inclination": " 98.8236",
      "rightAscension": "234.5341",
      "eccentricity": "0031744",
      "argumentOfPerigee": "113.5436",
      "meanAnomaly": "276.6103",
      "meanMotion": "14.19159282",
      "fetchTimestamp": "2023-08-01T08:16:28.000+00:00"
    }
  ],
  "pageable": {
    "sort": { "empty": true, "sorted": false, "unsorted": true },
    "offset": 0,
    "pageNumber": 0,
    "pageSize": 15,
    "paged": true,
    "unpaged": false
  },
  "totalPages": 862,
  "totalElements": 12917,
  "last": false,
  "number": 0,
  "sort": { "empty": true, "sorted": false, "unsorted": true },
  "size": 15,
  "numberOfElements": 15,
  "first": true,
  "empty": false
}
