{
  "content": [
    {
      "id": 141,
      "satelliteId": "25544",
      "name": "ISS (ZARYA)",
      "date": "2023-07-31T21:56:18.000+00:00",
      "satelliteNumber": "25544",
      "classification": "U",
      "launch": "98067",
      "launchPiece": "A",
      "epoch": "23212.53910152",
      "firstTimeDerivative": " .00019420",
      "secondTimeDerivative": " 00000+0",
      "bstarDragTerm": " 34791-3",
      "ephemerisType": "0",
      "elementNumber": " 999",
      "checksum": "8",
      "inclination": " 51.6400",
      "rightAscension": "108.7850",
      "eccentricity": "0001109",
      "argumentOfPerigee": "159.0642",
      "meanAnomaly": "201.0392",
      "meanMotion": "15.49959621",
      "fetchTimestamp": "2023-08-01T06:24:42.000+00:00"
    },
    {
      "id": 142,
      "satelliteId": "40075",
      "name": "AISSAT 2",
      "date": "2023-07-31T16:37:59.000+00:00",
      "satelliteNumber": "40075",
      "classification": "U",
      "launch": "14037",
      "launchPiece": "G",
      "epoch": "23212.31804666",
      "firstTimeDerivative": " .00002292",
      "secondTimeDerivative": " 00000+0",
      "bstarDragTerm": " 27783-3",
      "ephemerisType": "0",
      "elementNumber": " 999",
      "checksum": "9",
      "inclination": " 98.3470",
      "rightAscension": "111.2872",
      "eccentricity": "0006945",
      "argumentOfPerigee": " 87.0183",
      "meanAnomaly": "273.1825",
      "meanMotion": "14.84669037",
      "fetchTimestamp": "2023-08-01T06:24:42.000+00:00"
    },
    {
      "id": 143,
      "satelliteId": "36797",
      "name": "AISSAT 1",
      "date": "2023-07-31T18:40:10.000+00:00",
      "satelliteNumber": "36797",
      "classification": "U",
      "launch": "10035",
      "launchPiece": "C",
      "epoch": "23212.40290020",
      "firstTimeDerivative": " .00002358",
      "secondTimeDerivative": " 00000+0",
      "bstarDragTerm": " 25721-3",
      "ephemerisType": "0",
      "elementNumber": " 999",
      "checksum": "5",
      "inclination": " 98.2236",
      "rightAscension": " 56.8055",
      "eccentricity": "0009239",
      "argumentOfPerigee": "279.6239",
      "meanAnomaly": " 80.3933",
      "meanMotion": "14.88959853",
      "fetchTimestamp": "2023-08-01T06:24:42.000+00:00"
    },
    {
      "id": 144,
      "satelliteId": "43809",
      "name": "CENTAURI-1",
      "date": "2023-07-31T18:32:09.000+00:00",
      "satelliteNumber": "43809",
      "classification": "U",
      "launch": "18099",
      "launchPiece": "B",
      "epoch": "23212.39733092",
      "firstTimeDerivative": " .00004934",
      "secondTimeDerivative": " 00000+0",
      "bstarDragTerm": " 40332-3",
      "ephemerisType": "0",
      "elementNumber": " 999",
      "checksum": "1",
      "inclination": " 97.5740",
      "rightAscension": "273.6146",
      "eccentricity": "0013692",
      "argumentOfPerigee": "348.6111",
      "meanAnomaly": " 11.4801",
      "meanMotion": "14.99745883",
      "fetchTimestamp": "2023-08-01T06:24:42.000+00:00"
    },
    {
      "id": 145,
      "satelliteId": "28654",
      "name": "NOAA 18",
      "date": "2023-07-31T20:10:33.000+00:00",
      "satelliteNumber": "28654",
      "classification": "U",
      "launch": "05018",
      "launchPiece": "A",
      "epoch": "23212.46567114",
      "firstTimeDerivative": " .00000246",
      "secondTimeDerivative": " 00000+0",
      "bstarDragTerm": " 15598-3",
      "ephemerisType": "0",
      "elementNumber": " 999",
      "checksum": "5",
      "inclination": " 98.9082",
      "rightAscension": "286.6395",
      "eccentricity": "0013259",
      "argumentOfPerigee": "252.9561",
      "meanAnomaly": "107.0158",
      "meanMotion": "14.12978671",
      "fetchTimestamp": "2023-08-01T06:24:42.000+00:00"
    },
    {
      "id": 146,
      "satelliteId": "47966",
      "name": "CENTAURI-3 (TYVAK-0210)",
      "date": "2023-07-31T02:58:54.000+00:00",
      "satelliteNumber": "47966",
      "classification": "U",
      "launch": "21023",
      "launchPiece": "B",
      "epoch": "23211.74924080",
      "firstTimeDerivative": " .00016001",
      "secondTimeDerivative": " 00000+0",
      "bstarDragTerm": " 70772-3",
      "ephemerisType": "0",
      "elementNumber": " 999",
      "checksum": "6",
      "inclination": " 44.9965",
      "rightAscension": "220.9552",
      "eccentricity": "0010287",
      "argumentOfPerigee": " 45.4960",
      "meanAnomaly": "314.6760",
      "meanMotion": "15.21529443",
      "fetchTimestamp": "2023-08-01T06:24:42.000+00:00"
    },
    {
      "id": 147,
      "satelliteId": "42792",
      "name": "ROBUSTA 1B",
      "date": "2023-07-31T11:40:07.000+00:00",
      "satelliteNumber": "42792",
      "classification": "U",
      "launch": "17036",
      "launchPiece": "A",
      "epoch": "23212.11119981",
      "firstTimeDerivative": " .00100616",
      "secondTimeDerivative": " 00000+0",
      "bstarDragTerm": " 11069-2",
      "ephemerisType": "0",
      "elementNumber": " 999",
      "checksum": "4",
      "inclination": " 97.1374",
      "rightAscension": "253.1343",
      "eccentricity": "0003317",
      "argumentOfPerigee": "228.8327",
      "meanAnomaly": "131.2646",
      "meanMotion": "15.62826198",
      "fetchTimestamp": "2023-08-01T06:24:42.000+00:00"
    },
    {
      "id": 148,
      "satelliteId": "42759",
      "name": "ZHUHAI-1 02 (CAS-4B)",
      "date": "2023-07-31T18:53:16.000+00:00",
      "satelliteNumber": "42759",
      "classification": "U",
      "launch": "17034",
      "launchPiece": "B",
      "epoch": "23212.41199936",
      "firstTimeDerivative": " .00009187",
      "secondTimeDerivative": " 00000+0",
      "bstarDragTerm": " 45171-3",
      "ephemerisType": "0",
      "elementNumber": " 999",
      "checksum": "9",
      "inclination": " 43.0137",
      "rightAscension": "229.7002",
      "eccentricity": "0010424",
      "argumentOfPerigee": " 20.7128",
      "meanAnomaly": "339.4141",
      "meanMotion": "15.18172918",
      "fetchTimestamp": "2023-08-01T06:24:42.000+00:00"
    },
    {
      "id": 149,
      "satelliteId": "43786",
      "name": "ITASAT 1",
      "date": "2023-07-31T12:07:27.000+00:00",
      "satelliteNumber": "43786",
      "classification": "U",
      "launch": "18099",
      "launchPiece": "A",
      "epoch": "23212.13017474",
      "firstTimeDerivative": " .00005502",
      "secondTimeDerivative": " 00000+0",
      "bstarDragTerm": " 44699-3",
      "ephemerisType": "0",
      "elementNumber": " 999",
      "checksum": "8",
      "inclination": " 97.5774",
      "rightAscension": "273.5153",
      "eccentricity": "0014050",
      "argumentOfPerigee": "350.5546",
      "meanAnomaly": "  9.5411",
      "meanMotion": "14.99928156",
      "fetchTimestamp": "2023-08-01T06:24:42.000+00:00"
    },
    {
      "id": 150,
      "satelliteId": "33499",
      "name": "KKS-1 (KISEKI)",
      "date": "2023-07-31T02:58:01.000+00:00",
      "satelliteNumber": "33499",
      "classification": "U",
      "launch": "09002",
      "launchPiece": "H",
      "epoch": "23211.74862650",
      "firstTimeDerivative": " .00001449",
      "secondTimeDerivative": " 00000+0",
      "bstarDragTerm": " 21202-3",
      "ephemerisType": "0",
      "elementNumber": " 999",
      "checksum": "3",
      "inclination": " 98.1677",
      "rightAscension": "104.6166",
      "eccentricity": "0010202",
      "argumentOfPerigee": " 87.8284",
      "meanAnomaly": "272.4094",
      "meanMotion": "14.77204319",
      "fetchTimestamp": "2023-08-01T06:24:42.000+00:00"
    },
    {
      "id": 151,
      "satelliteId": "42828",
      "name": "NORSAT 2",
      "date": "2023-07-31T10:37:13.000+00:00",
      "satelliteNumber": "42828",
      "classification": "U",
      "launch": "17042",
      "launchPiece": "D",
      "epoch": "23212.06751760",
      "firstTimeDerivative": " .00004700",
      "secondTimeDerivative": " 00000+0",
      "bstarDragTerm": " 42127-3",
      "ephemerisType": "0",
      "elementNumber": " 999",
      "checksum": "9",
      "inclination": " 97.3916",
      "rightAscension": " 50.3846",
      "eccentricity": "0014265",
      "argumentOfPerigee": " 73.8747",
      "meanAnomaly": "286.4044",
      "meanMotion": "14.96152285",
      "fetchTimestamp": "2023-08-01T06:24:42.000+00:00"
    },
    {
      "id": 152,
      "satelliteId": "33591",
      "name": "NOAA 19",
      "date": "2023-07-31T17:58:46.000+00:00",
      "satelliteNumber": "33591",
      "classification": "U",
      "launch": "09005",
      "launchPiece": "A",
      "epoch": "23212.37415422",
      "firstTimeDerivative": " .00000239",
      "secondTimeDerivative": " 00000+0",
      "bstarDragTerm": " 15315-3",
      "ephemerisType": "0",
      "elementNumber": " 999",
      "checksum": "4",
      "inclination": " 99.0969",
      "rightAscension": "259.0008",
      "eccentricity": "0014854",
      "argumentOfPerigee": "117.2713",
      "meanAnomaly": "242.9973",
      "meanMotion": "14.12795539",
      "fetchTimestamp": "2023-08-01T06:24:42.000+00:00"
    },
    {
      "id": 153,
      "satelliteId": "25338",
      "name": "NOAA 15",
      "date": "2023-07-31T17:25:00.000+00:00",
      "satelliteNumber": "25338",
      "classification": "U",
      "launch": "98030",
      "launchPiece": "A",
      "epoch": "23212.35070219",
      "firstTimeDerivative": " .00000293",
      "secondTimeDerivative": " 00000+0",
      "bstarDragTerm": " 13992-3",
      "ephemerisType": "0",
      "elementNumber": " 999",
      "checksum": "8",
      "inclination": " 98.6039",
      "rightAscension": "240.6480",
      "eccentricity": "0010398",
      "argumentOfPerigee": "178.3053",
      "meanAnomaly": "181.8164",
      "meanMotion": "14.26362427",
      "fetchTimestamp": "2023-08-01T06:24:42.000+00:00"
    },
    {
      "id": 154,
      "satelliteId": "42017",
      "name": "NAYIF-1 (EO-88)",
      "date": "2023-07-18T00:27:12.000+00:00",
      "satelliteNumber": "42017",
      "classification": "U",
      "launch": "17008",
      "launchPiece": "B",
      "epoch": "23198.64389602",
      "firstTimeDerivative": " .03845235",
      "secondTimeDerivative": " 23435-5",
      "bstarDragTerm": " 12955-2",
      "ephemerisType": "0",
      "elementNumber": " 999",
      "checksum": "7",
      "inclination": " 97.1939",
      "rightAscension": "272.0619",
      "eccentricity": "0014074",
      "argumentOfPerigee": "261.3029",
      "meanAnomaly": " 98.6670",
      "meanMotion": "16.25423645",
      "fetchTimestamp": "2023-08-01T06:24:42.000+00:00"
    },
    {
      "id": 155,
      "satelliteId": "43696",
      "name": "PROXIMA II",
      "date": "2023-07-31T04:20:43.000+00:00",
      "satelliteNumber": "43696",
      "classification": "U",
      "launch": "18088",
      "launchPiece": "G",
      "epoch": "23211.80606146",
      "firstTimeDerivative": " .00026646",
      "secondTimeDerivative": " 00000+0",
      "bstarDragTerm": " 64069-3",
      "ephemerisType": "0",
      "elementNumber": " 999",
      "checksum": "4",
      "inclination": " 85.0221",
      "rightAscension": " 38.5481",
      "eccentricity": "0013155",
      "argumentOfPerigee": " 39.7221",
      "meanAnomaly": "320.4991",
      "meanMotion": "15.41083477",
      "fetchTimestamp": "2023-08-01T06:24:42.000+00:00"
    }
  ],
  "pageable": {
    "sort": {
      "empty": true,
      "sorted": false,
      "unsorted": true
    },
    "offset": 0,
    "pageNumber": 0,
    "pageSize": 15,
    "paged": true,
    "unpaged": false
  },
  "totalPages": 862,
  "totalElements": 12917,
  "last": false,
  "number": 0,
  "sort": {
    "empty": true,
    "sorted": false,
    "unsorted": true
  },
  "size": 15,
  "numberOfElements": 15,
  "first": true,
  "empty": false
}
